{
  "codeInsee": "35240",
  "produits": [
    {
      "refCnp": "353800/01",
      "nom": "COLLECTIVITE EAU DU BASSIN RENNAIS",
      "type": "EauPotable",
      "sousType": "",
      "mission": "Distribution",
      "frais": [
        {
          "categorie": "FraisAdministratif",
          "typeService": "Souscription",
          "libelle": "Frais d'accès au service",
          "montantTtc": 18.16
        },
        {
          "categorie": "FraisDeDeplacement",
          "typeService": "Souscription",
          "libelle": "Frais d'ouverture de branchement ",
          "montantTtc": 31.78
        },
        {
          "categorie": "FraisDeDeplacement",
          "typeService": "Resiliation",
          "libelle": "Frais de fermeture de branchement",
          "montantTtc": 31.78
        }
      ]
    }
  ]
}
