{
  "codeInsee": "78208",
  "rds": [
    {
      "refCnp": "780200/01",
      "type": "EauPotable",
      "sousType": "",
      "libelle": "Règlement de service de l’Eau - SIRYAE",
      "taille": 619,
      "typeMime": "application/pdf",
      "url": "http://op40zhpa04:8181/api/fichier-rds/78208/780200-01"
    }
  ]
}
