{
  "codeInsee": "35240",
  "rds": [
    {
      "refCnp": "353800/01",
      "type": "EauPotable",
      "sousType": "",
      "libelle": "Règlement de service de l’Eau - COLLECTIVITE EAU DU BASSIN RENNAIS",
      "taille": 731,
      "typeMime": "application/pdf",
      "url": "http://op40zhpa04:8181/api/fichier-rds/35240/353800-01"
    }
  ]
}
