{
  "codeInsee": "77132",
  "rds": [
    {
      "refCnp": "770400/01",
      "type": "EauPotable",
      "sousType": "",
      "libelle": "Règlement de service de l’Eau - VAL D'EUROPE AGGLOMERATION",
      "taille": 201,
      "typeMime": "application/pdf",
      "url": "http://op40zhpa04:8181/api/fichier-rds/77132/770400-01"
    },
    {
      "refCnp": "770401/02",
      "type": "Assainissement",
      "sousType": "Collectif",
      "libelle": "Règlement de service de l’Assainissement - VAL D'EUROPE AGGLOMERATION",
      "taille": 187,
      "typeMime": "application/pdf",
      "url": "http://op40zhpa04:8181/api/fichier-rds/77132/770401-02"
    }
  ]
}
