{
  "codeInsee": "18001",
  "rds": [
    {
      "refCnp": "180700/01",
      "type": "EauPotable",
      "sousType": "",
      "libelle": "Règlement de service de l’Eau - SIAEP DE QUANTILLY ST PALAIS ACHERES",
      "taille": 215,
      "typeMime": "application/pdf",
      "url": "http://op40zhpa04:8181/api/fichier-rds/18001/180700-01"
    }
  ]
}
