{
  "codeInsee": "46201",
  "rds": [
    {
      "refCnp": "465100/01",
      "type": "EauPotable",
      "sousType": "",
      "libelle": "Règlement de service de l’Eau - SYNDICAT EAU POTABLE ET ASSAINISSEMENT DU QUERCY BLANC",
      "taille": 510,
      "typeMime": "application/pdf",
      "url": "http://op40zhpa04:8181/api/fichier-rds/46201/465100-01"
    },
    {
      "refCnp": "465101/02",
      "type": "Assainissement",
      "sousType": "Collectif",
      "libelle": "Règlement de service de l’Assainissement - SYNDICAT EAU POTABLE ET ASSAINISSEMENT DU QUERCY BLANC",
      "taille": 216,
      "typeMime": "application/pdf",
      "url": "http://op40zhpa04:8181/api/fichier-rds/46201/465101-02"
    }
  ]
}
